wave_DE.vcd
$date
  Thu Mar 26 15:08:14 2026
$end
$version
  GHDL v0
$end
$timescale
  1 fs
$end
$scope module standard $end
$upscope $end
$scope module std_logic_1164 $end
$upscope $end
$scope module numeric_std $end
$upscope $end
$scope module bus_mux_pkg $end
$upscope $end
$scope module tb_etagede $end
$var reg 1 ! clk $end
$var reg 1 " init $end
$var reg 1 # regwr $end
$var reg 2 $ regsrc[1:0] $end
$var reg 2 % immsrc[1:0] $end
$var reg 32 & i_de[31:0] $end
$var reg 32 ' wd_er[31:0] $end
$var reg 32 ( pc_plus_4[31:0] $end
$var reg 4 ) op3_er[3:0] $end
$var reg 4 * reg1[3:0] $end
$var reg 4 + reg2[3:0] $end
$var reg 4 , op3_de[3:0] $end
$var reg 32 - op1[31:0] $end
$var reg 32 . op2[31:0] $end
$var reg 32 / extlmm[31:0] $end
$scope module dut $end
$var reg 32 0 i_de[31:0] $end
$var reg 32 1 wd_er[31:0] $end
$var reg 32 2 pc_plus_4[31:0] $end
$var reg 4 3 op3_er[3:0] $end
$var reg 2 4 regsrc[1:0] $end
$var reg 2 5 immsrc[1:0] $end
$var reg 1 6 regwr $end
$var reg 1 7 clk $end
$var reg 1 8 init $end
$var reg 4 9 reg1[3:0] $end
$var reg 4 : reg2[3:0] $end
$var reg 4 ; op3_de[3:0] $end
$var reg 32 < op1[31:0] $end
$var reg 32 = op2[31:0] $end
$var reg 32 > extlmm[31:0] $end
$var reg 4 ? sigop1[3:0] $end
$var reg 4 @ sigop2[3:0] $end
$var reg 24 A immin_sig[23:0] $end
$scope module inst_reg_bank $end
$var reg 4 B s_reg_0[3:0] $end
$var reg 32 C data_o_0[31:0] $end
$var reg 4 D s_reg_1[3:0] $end
$var reg 32 E data_o_1[31:0] $end
$var reg 4 F dest_reg[3:0] $end
$var reg 32 G data_i[31:0] $end
$var reg 32 H pc_in[31:0] $end
$var reg 1 I init $end
$var reg 1 J wr_reg $end
$var reg 1 K clk $end
$comment regs is not handled $end
$upscope $end
$scope module inst_ext $end
$var reg 24 L immin[23:0] $end
$var reg 2 M immsrc[1:0] $end
$var reg 32 N extout[31:0] $end
$var reg 32 O extimm12[31:0] $end
$var reg 32 P extimm24[31:0] $end
$var reg 20 Q extsign20[19:0] $end
$var reg 8 R extsign8[7:0] $end
$var reg 8 S zeros[7:0] $end
$upscope $end
$upscope $end
$upscope $end
$enddefinitions $end
#0
0!
1"
0#
b00 $
b00 %
b00000000000000000000000000000000 &
b00000000000000000000000000000000 '
b00000000000000000000000000000000 (
b0000 )
b0000 *
b0000 +
b0000 ,
b00000000000000000000000000000000 -
b00000000000000000000000000000000 .
b00000000000000000000000000000000 /
b00000000000000000000000000000000 0
b00000000000000000000000000000000 1
b00000000000000000000000000000000 2
b0000 3
b00 4
b00 5
06
07
18
b0000 9
b0000 :
b0000 ;
b00000000000000000000000000000000 <
b00000000000000000000000000000000 =
b00000000000000000000000000000000 >
b0000 ?
b0000 @
b000000000000000000000000 A
b0000 B
b00000000000000000000000000000000 C
b0000 D
b00000000000000000000000000000000 E
b0000 F
b00000000000000000000000000000000 G
b00000000000000000000000000000000 H
1I
0J
0K
b000000000000000000000000 L
b00 M
b00000000000000000000000000000000 N
b00000000000000000000000000000000 O
b00000000000000000000000000000000 P
b00000000000000000000 Q
b00000000 R
bUUUUUUUU S
#5000000
1!
17
1K
#10000000
0!
07
0K
#15000000
1!
0"
17
08
0I
1K
#20000000
0!
07
0K
#25000000
1!
1#
b00000000000000000000000000000001 '
b0001 )
b00000000000000000000000000000001 1
b0001 3
16
17
b0001 F
b00000000000000000000000000000001 G
1J
1K
#30000000
0!
07
0K
#35000000
1!
0#
06
17
0J
1K
#40000000
0!
1#
b00000000000000000000000000000010 '
b0010 )
b00000000000000000000000000000010 1
b0010 3
16
07
b0010 F
b00000000000000000000000000000010 G
1J
0K
#45000000
1!
17
1K
#50000000
0!
0#
06
07
0J
0K
#55000000
1!
1#
b00000000000000000000000000000011 '
b0011 )
b00000000000000000000000000000011 1
b0011 3
16
17
b0011 F
b00000000000000000000000000000011 G
1J
1K
#60000000
0!
07
0K
#65000000
1!
0#
06
17
0J
1K
#70000000
0!
1#
b11011110101011011011111011101111 '
b0100 )
b11011110101011011011111011101111 1
b0100 3
16
07
b0100 F
b11011110101011011011111011101111 G
1J
0K
#75000000
1!
17
1K
#80000000
0!
0#
06
07
0J
0K
#85000000
1!
1#
b11111111111111111111111111111111 '
b0101 )
b11111111111111111111111111111111 1
b0101 3
16
17
b0101 F
b11111111111111111111111111111111 G
1J
1K
#90000000
0!
07
0K
#95000000
1!
0#
06
17
0J
1K
#100000000
0!
1#
b11001010111111101011101010111110 '
b1110 )
b11001010111111101011101010111110 1
b1110 3
16
07
b1110 F
b11001010111111101011101010111110 G
1J
0K
#105000000
1!
17
1K
#110000000
0!
0#
06
07
0J
0K
#115000000
1!
17
1K
#120000000
0!
07
0K
#125000000
1!
b11100000100000010011000000000010 &
b0001 *
b0010 +
b0011 ,
b00000000000000000000000000000001 -
b00000000000000000000000000000010 .
b00000000000000000000000000000010 /
b11100000100000010011000000000010 0
17
b0001 9
b0010 :
b0011 ;
b00000000000000000000000000000001 <
b00000000000000000000000000000010 =
b00000000000000000000000000000010 >
b0001 ?
b0010 @
b100000010011000000000010 A
b0001 B
b00000000000000000000000000000001 C
b0010 D
b00000000000000000000000000000010 E
1K
b100000010011000000000010 L
b00000000000000000000000000000010 N
b00000000000000000000000000000010 O
b11111111100000010011000000000010 P
b11111111 R
#130000000
0!
07
0K
#135000000
1!
17
1K
#140000000
0!
07
0K
#145000000
1!
b11100010100000010011000011111111 &
b1111 +
b00000000000000000000000000000000 .
b00000000000000000000000011111111 /
b11100010100000010011000011111111 0
17
b1111 :
b00000000000000000000000000000000 =
b00000000000000000000000011111111 >
b1111 @
b100000010011000011111111 A
b1111 D
b00000000000000000000000000000000 E
1K
b100000010011000011111111 L
b00000000000000000000000011111111 N
b00000000000000000000000011111111 O
b11111111100000010011000011111111 P
#150000000
0!
07
0K
#155000000
1!
17
1K
#160000000
0!
07
0K
#165000000
1!
b11100010100000010011111111111111 &
b11111111111111111111111111111111 /
b11100010100000010011111111111111 0
17
b11111111111111111111111111111111 >
b100000010011111111111111 A
1K
b100000010011111111111111 L
b11111111111111111111111111111111 N
b11111111111111111111111111111111 O
b11111111100000010011111111111111 P
b11111111111111111111 Q
#170000000
0!
07
0K
#175000000
1!
17
1K
#180000000
0!
07
0K
#185000000
1!
b01 %
b00000000000000000000111111111111 /
b01 5
17
b00000000000000000000111111111111 >
1K
b01 M
b00000000000000000000111111111111 N
b00000000000000000000111111111111 O
b00000000000000000000 Q
#190000000
0!
07
0K
#195000000
1!
17
1K
#200000000
0!
07
0K
#205000000
1!
b10 %
b11101010000000000000000000010000 &
b0000 *
b0000 +
b0000 ,
b00000000000000000000000000000000 -
b00000000000000000000000000010000 /
b11101010000000000000000000010000 0
b10 5
17
b0000 9
b0000 :
b0000 ;
b00000000000000000000000000000000 <
b00000000000000000000000000010000 >
b0000 ?
b0000 @
b000000000000000000010000 A
b0000 B
b00000000000000000000000000000000 C
b0000 D
1K
b000000000000000000010000 L
b10 M
b00000000000000000000000000010000 N
b00000000000000000000000000010000 O
b00000000000000000000000000010000 P
b00000000000000000000 Q
b00000000 R
#210000000
0!
07
0K
#215000000
1!
17
1K
#220000000
0!
07
0K
#225000000
1!
b11101010111111111111111111111110 &
b1111 *
b1110 +
b1111 ,
b11001010111111101011101010111110 .
b11111111111111111111111111111110 /
b11101010111111111111111111111110 0
17
b1111 9
b1110 :
b1111 ;
b11001010111111101011101010111110 =
b11111111111111111111111111111110 >
b1111 ?
b1110 @
b111111111111111111111110 A
b1111 B
b1110 D
b11001010111111101011101010111110 E
1K
b111111111111111111111110 L
b11111111111111111111111111111110 N
b11111111111111111111111111111110 O
b11111111111111111111111111111110 P
b11111111111111111111 Q
b11111111 R
#230000000
0!
07
0K
#235000000
1!
17
1K
#240000000
0!
07
0K
#245000000
1!
b01 $
b11101010000000010011000000000000 &
b00000000000000000000000000010000 (
b0000 +
b0011 ,
b00000000000000000000000000010000 -
b00000000000000000000000000000000 .
b00000000000000010011000000000000 /
b11101010000000010011000000000000 0
b00000000000000000000000000010000 2
b01 4
17
b0000 :
b0011 ;
b00000000000000000000000000010000 <
b00000000000000000000000000000000 =
b00000000000000010011000000000000 >
b0000 @
b000000010011000000000000 A
b00000000000000000000000000010000 C
b0000 D
b00000000000000000000000000000000 E
b00000000000000000000000000010000 H
1K
b000000010011000000000000 L
b00000000000000010011000000000000 N
b00000000000000000000000000000000 O
b00000000000000010011000000000000 P
b00000000000000000000 Q
b00000000 R
#250000000
0!
07
0K
#255000000
1!
17
1K
#260000000
0!
07
0K
#265000000
1!
b10 $
b00 %
b11100101100000010100000000000010 &
b0001 *
b0100 +
b0100 ,
b00000000000000000000000000000001 -
b11011110101011011011111011101111 .
b00000000000000000000000000000010 /
b11100101100000010100000000000010 0
b10 4
b00 5
17
b0001 9
b0100 :
b0100 ;
b00000000000000000000000000000001 <
b11011110101011011011111011101111 =
b00000000000000000000000000000010 >
b0001 ?
b0100 @
b100000010100000000000010 A
b0001 B
b00000000000000000000000000000001 C
b0100 D
b11011110101011011011111011101111 E
1K
b100000010100000000000010 L
b00 M
b00000000000000000000000000000010 N
b00000000000000000000000000000010 O
b11111111100000010100000000000010 P
b11111111 R
#270000000
0!
07
0K
#275000000
1!
17
1K
#280000000
0!
07
0K
#285000000
1!
b11 $
b10 %
b11101010000000010101000000000010 &
b00000000000000000000000000100000 (
b1111 *
b0101 +
b0101 ,
b00000000000000000000000000100000 -
b11111111111111111111111111111111 .
b00000000000000010101000000000010 /
b11101010000000010101000000000010 0
b00000000000000000000000000100000 2
b11 4
b10 5
17
b1111 9
b0101 :
b0101 ;
b00000000000000000000000000100000 <
b11111111111111111111111111111111 =
b00000000000000010101000000000010 >
b1111 ?
b0101 @
b000000010101000000000010 A
b1111 B
b00000000000000000000000000100000 C
b0101 D
b11111111111111111111111111111111 E
b00000000000000000000000000100000 H
1K
b000000010101000000000010 L
b10 M
b00000000000000010101000000000010 N
b00000000000000010101000000000010 P
b00000000 R
#290000000
0!
07
0K
#295000000
1!
17
1K
#300000000
0!
07
0K
#305000000
1!
1#
b00 $
b00 %
b11100000100000010001000000000010 &
b00010010001101000101011001111000 '
b0001 )
b0001 *
b0010 +
b0001 ,
b00010010001101000101011001111000 -
b00000000000000000000000000000010 .
b00000000000000000000000000000010 /
b11100000100000010001000000000010 0
b00010010001101000101011001111000 1
b0001 3
b00 4
b00 5
16
17
b0001 9
b0010 :
b0001 ;
b00010010001101000101011001111000 <
b00000000000000000000000000000010 =
b00000000000000000000000000000010 >
b0001 ?
b0010 @
b100000010001000000000010 A
b0001 B
b00010010001101000101011001111000 C
b0010 D
b00000000000000000000000000000010 E
b0001 F
b00010010001101000101011001111000 G
1J
1K
b100000010001000000000010 L
b00 M
b00000000000000000000000000000010 N
b11111111100000010001000000000010 P
b11111111 R
#310000000
0!
07
0K
#315000000
1!
0#
06
17
0J
1K
#320000000
0!
07
0K
#325000000
1!
b11100000100000000000000000000000 &
b0000 *
b0000 +
b0000 ,
b00000000000000000000000000000000 -
b00000000000000000000000000000000 .
b00000000000000000000000000000000 /
b11100000100000000000000000000000 0
17
b0000 9
b0000 :
b0000 ;
b00000000000000000000000000000000 <
b00000000000000000000000000000000 =
b00000000000000000000000000000000 >
b0000 ?
b0000 @
b100000000000000000000000 A
b0000 B
b00000000000000000000000000000000 C
b0000 D
b00000000000000000000000000000000 E
1K
b100000000000000000000000 L
b00000000000000000000000000000000 N
b00000000000000000000000000000000 O
b11111111100000000000000000000000 P
#330000000
0!
07
0K
#335000000
1!
17
1K
#340000000
0!
07
0K
#345000000
1!
b11100000100011100000000000001110 &
b1110 *
b1110 +
b11001010111111101011101010111110 -
b11001010111111101011101010111110 .
b00000000000000000000000000001110 /
b11100000100011100000000000001110 0
17
b1110 9
b1110 :
b11001010111111101011101010111110 <
b11001010111111101011101010111110 =
b00000000000000000000000000001110 >
b1110 ?
b1110 @
b100011100000000000001110 A
b1110 B
b11001010111111101011101010111110 C
b1110 D
b11001010111111101011101010111110 E
1K
b100011100000000000001110 L
b00000000000000000000000000001110 N
b00000000000000000000000000001110 O
b11111111100011100000000000001110 P
#350000000
0!
07
0K
#355000000
1!
17
1K
#360000000
0!
07
0K
#365000000
1!
1"
b00000000000000000000000000000000 -
b00000000000000000000000000000000 .
17
18
b00000000000000000000000000000000 <
b00000000000000000000000000000000 =
b00000000000000000000000000000000 C
b00000000000000000000000000000000 E
1I
1K
#370000000
0!
07
0K
#375000000
1!
17
1K
#380000000
0!
0"
b11100000100000010001000000000000 &
b0001 *
b0000 +
b0001 ,
b00000000000000000000000000000000 /
b11100000100000010001000000000000 0
07
08
b0001 9
b0000 :
b0001 ;
b00000000000000000000000000000000 >
b0001 ?
b0000 @
b100000010001000000000000 A
b0001 B
b0000 D
0I
0K
b100000010001000000000000 L
b00000000000000000000000000000000 N
b00000000000000000000000000000000 O
b11111111100000010001000000000000 P
